[0 IDEstacion][1 Placa][2 NombreCompleto][3 Fecha][4 Hora][5 Estacionado]
0<>0215688 0<>Likaira Paniagua<>18/06/2016<>16:29:29<>SI
1<>0215688 1<>sdfsdf sdfs<>18/06/2016<>16:31:19<>SI
2<>sdfsdf<>sdfsdf sdfs<>18/06/2016<>16:32:19<>SI
3<>0215688<>Likaira Paniagua<>18/06/2016<>16:32:50<>SI
4<>null<>Eduardo Diaz Perez<>18/06/2016<>16:33:7<>SI
5<>6467sd6<>Eduardo Diaz Perez<>18/06/2016<>16:46:42<>SI
6<>sdfsdf<>sdfsdf sdfs<>18/06/2016<>17:23:17<>SI
7<>sdf23423<>Likaira Paniagua<>18/06/2016<>17:23:27<>SI
8<>6467sd6<>Eduardo Diaz Perez<>18/06/2016<>19:4:35<>SI
9<>sdf23423<>Likaira Paniagua<>18/06/2016<>19:16:41<>SI
10<>0215688<>Likaira Paniagua<>18/06/2016<>19:41:55<>SI
11<>sd66754<>Galf Diaz Almonte<>18/06/2016<>19:54:57<>SI
